sim/traffic_sim.vcd
$date
	Fri Jul 11 23:30:06 2025
$end
$version
	Icarus Verilog
$end
$timescale
	1s
$end
$scope module trafficLight_tb $end
$var wire 1 ! yellow $end
$var wire 1 " red $end
$var wire 1 # green $end
$var reg 1 $ clk $end
$var reg 1 % rst $end
$scope module DUT $end
$var wire 1 $ clk $end
$var wire 1 % rst $end
$var wire 1 ! yellow $end
$var wire 1 " red $end
$var wire 1 # green $end
$var parameter 2 & SG $end
$var parameter 2 ' SO $end
$var parameter 2 ( SR $end
$var parameter 2 ) SY $end
$var reg 2 * state [1:0] $end
$upscope $end
$upscope $end
$scope module trafficLight_tb $end
$scope module DUT $end
$upscope $end
$upscope $end
$enddefinitions $end
$comment Show the parameter values. $end
$dumpall
b10 )
b1 (
b0 '
b11 &
$end
#0
$dumpvars
b0 *
0%
0$
0#
0"
0!
$end
#5
1"
b1 *
1%
1$
#10
0$
#15
0"
1!
b10 *
1$
#20
0$
#25
1#
0!
b11 *
1$
#30
0$
#35
1"
0#
b1 *
1$
#40
0$
#45
0"
1!
b10 *
1$
#50
0$
#55
1#
0!
b11 *
1$
#60
0$
#65
1"
0#
b1 *
1$
#70
0$
#75
0"
1!
b10 *
1$
#80
0$
#85
1#
0!
b11 *
1$
#90
0$
#95
1"
0#
b1 *
1$
#100
0$
#105
0"
1!
b10 *
1$
#110
0$
#115
1#
0!
b11 *
1$
#120
0$
#125
1"
0#
b1 *
1$
#130
0$
#135
0"
1!
b10 *
1$
#140
0$
#145
1#
0!
b11 *
1$
#150
0$
#155
1"
0#
b1 *
1$
#160
0$
#165
0"
1!
b10 *
1$
#170
0$
#175
1#
0!
b11 *
1$
#180
0$
#185
1"
0#
b1 *
1$
#190
0$
#195
0"
1!
b10 *
1$
